hardware/simulation/icarus/knn.vcd
$date
	Sat Nov  7 01:52:12 2020
$end
$version
	Icarus Verilog
$end
$timescale
	1ps
$end
$scope module iob_knn $end
$var wire 3 ! address [2:0] $end
$var wire 1 " clk $end
$var wire 32 # rdata [31:0] $end
$var wire 1 $ ready $end
$var wire 1 % rst $end
$var wire 1 & valid $end
$var wire 1 ' wdata $end
$var wire 4 ( wstrb [3:0] $end
$var wire 32 ) KNN_VALUE [31:0] $end
$var reg 32 * KNN_DATA_IN [31:0] $end
$var reg 1 + KNN_ENABLE $end
$var reg 1 , KNN_RESET $end
$var reg 1 - KNN_SAMPLE $end
$var reg 32 . rdata_int [31:0] $end
$var reg 1 / ready_int $end
$var reg 1 0 rst_int $end
$var reg 1 1 write $end
$scope module knn0 $end
$var wire 32 2 KNN_DATA_IN [31:0] $end
$var wire 1 + KNN_ENABLE $end
$var wire 1 - KNN_SAMPLE $end
$var wire 32 3 KNN_VALUE [31:0] $end
$var wire 1 " clk $end
$var wire 1 0 rst $end
$var wire 32 4 DIST_OUT [31:0] $end
$var reg 32 5 Ax [31:0] $end
$var reg 1 6 AxEN $end
$var reg 32 7 Ay [31:0] $end
$var reg 1 8 AyEN $end
$var reg 32 9 Bx [31:0] $end
$var reg 1 : BxEN $end
$var reg 32 ; By [31:0] $end
$var reg 1 < ByEN $end
$var reg 3 = Curr_state [2:0] $end
$var reg 3 > Next_state [2:0] $end
$scope module dist1 $end
$var wire 32 ? Ax [31:0] $end
$var wire 32 @ Ay [31:0] $end
$var wire 32 A Bx [31:0] $end
$var wire 32 B By [31:0] $end
$var wire 32 C DIST_OUT [31:0] $end
$var reg 32 D DIST_VALUE [31:0] $end
$var reg 32 E X_DIFF [31:0] $end
$var reg 32 F X_SQR [31:0] $end
$var reg 32 G Y_DIFF [31:0] $end
$var reg 32 H Y_SQR [31:0] $end
$upscope $end
$upscope $end
$upscope $end
$scope module knn_tb $end
$var wire 32 I KNN_VALUE [31:0] $end
$var reg 32 J KNN_DATA_IN [31:0] $end
$var reg 1 K KNN_ENABLE $end
$var reg 1 L KNN_SAMPLE $end
$var reg 1 M clk $end
$var reg 1 N rst $end
$scope module knn0 $end
$var wire 32 O KNN_DATA_IN [31:0] $end
$var wire 1 K KNN_ENABLE $end
$var wire 1 L KNN_SAMPLE $end
$var wire 32 P KNN_VALUE [31:0] $end
$var wire 1 M clk $end
$var wire 1 N rst $end
$var wire 32 Q DIST_OUT [31:0] $end
$var reg 32 R Ax [31:0] $end
$var reg 1 S AxEN $end
$var reg 32 T Ay [31:0] $end
$var reg 1 U AyEN $end
$var reg 32 V Bx [31:0] $end
$var reg 1 W BxEN $end
$var reg 32 X By [31:0] $end
$var reg 1 Y ByEN $end
$var reg 3 Z Curr_state [2:0] $end
$var reg 3 [ Next_state [2:0] $end
$scope module dist1 $end
$var wire 32 \ Ax [31:0] $end
$var wire 32 ] Ay [31:0] $end
$var wire 32 ^ Bx [31:0] $end
$var wire 32 _ By [31:0] $end
$var wire 32 ` DIST_OUT [31:0] $end
$var reg 32 a DIST_VALUE [31:0] $end
$var reg 32 b X_DIFF [31:0] $end
$var reg 32 c X_SQR [31:0] $end
$var reg 32 d Y_DIFF [31:0] $end
$var reg 32 e Y_SQR [31:0] $end
$upscope $end
$upscope $end
$upscope $end
$enddefinitions $end
#0
$dumpvars
bx e
bx d
bx c
bx b
bx a
bx `
bx _
bx ^
bx ]
bx \
bx [
bx Z
0Y
bx X
0W
bx V
0U
bx T
0S
bx R
bx Q
bx P
bx O
0N
1M
0L
0K
bx J
bx I
bx H
bx G
bx F
bx E
bx D
bx C
bx B
bx A
bx @
bx ?
bx >
bx =
x<
bx ;
x:
bx 9
x8
bx 7
x6
bx 5
bx 4
bx 3
bx 2
x1
x0
x/
b0 .
x-
x,
x+
bx *
bx )
bz (
z'
z&
z%
x$
b0 #
z"
bz !
$end
#5000
0M
#7000
1N
#10000
1S
b1 [
b0 Z
1M
#15000
0M
#17000
0N
#20000
1S
1M
#21000
1K
#25000
0M
#30000
1W
b10 [
b1 Z
0S
1M
#31000
b0 I
b0 P
b0 Q
b0 `
b0 a
b0 e
b0 d
b0 c
b0 b
b100 J
b100 O
b100 \
b100 ]
b100 ^
b100 _
#35000
0M
#40000
1U
b11 [
b100 V
b10 Z
0W
1M
#41000
b11 J
b11 O
b11 \
b11 ]
b11 ^
b11 _
#45000
0M
#50000
1Y
b100 [
b11 Z
b11 T
0U
1M
#51000
b10 J
b10 O
b10 \
b10 ]
b10 ^
b10 _
#55000
0M
#60000
b100 [
b10 X
b100 Z
0Y
1M
#61000
b1 J
b1 O
b1 \
b1 ]
b1 ^
b1 _
#65000
0M
#70000
b100 [
1M
#75000
0M
#80000
b100 [
1M
#85000
0M
#90000
b100 [
1M
#95000
0M
#100000
b100 [
1M
#105000
0M
#110000
b100 [
1M
#115000
0M
#120000
b100 [
1M
#125000
0M
#130000
b100 [
1M
#135000
0M
#140000
b100 [
1M
#145000
0M
#150000
b100 [
1M
#155000
0M
#160000
b100 [
1M
#165000
0M
#170000
b100 [
1M
#175000
0M
#180000
b100 [
1M
#185000
0M
#190000
b100 [
1M
#195000
0M
#200000
b100 [
1M
#205000
0M
#210000
b100 [
1M
#215000
0M
#220000
b100 [
1M
#225000
0M
#230000
b100 [
1M
#235000
0M
#240000
b100 [
1M
#245000
0M
#250000
b100 [
1M
#255000
0M
#260000
b100 [
1M
#265000
0M
#270000
b100 [
1M
#275000
0M
#280000
b100 [
1M
#285000
0M
#290000
b100 [
1M
#295000
0M
#300000
b100 [
1M
#305000
0M
#310000
b100 [
1M
#315000
0M
#320000
b100 [
1M
#325000
0M
#330000
b100 [
1M
#335000
0M
#340000
b100 [
1M
#345000
0M
#350000
b100 [
1M
#355000
0M
#360000
b100 [
1M
#365000
0M
#370000
b100 [
1M
#375000
0M
#380000
b100 [
1M
#385000
0M
#390000
b100 [
1M
#395000
0M
#400000
b100 [
1M
#405000
0M
#410000
b100 [
1M
#415000
0M
#420000
b100 [
1M
#425000
0M
#430000
b100 [
1M
#435000
0M
#440000
b100 [
1M
#445000
0M
#450000
b100 [
1M
#455000
0M
#460000
b100 [
1M
#465000
0M
#470000
b100 [
1M
#475000
0M
#480000
b100 [
1M
#485000
0M
#490000
b100 [
1M
#495000
0M
#500000
b100 [
1M
#505000
0M
#510000
b100 [
1M
#515000
0M
#520000
b100 [
1M
#525000
0M
#530000
b100 [
1M
#535000
0M
#540000
b100 [
1M
#545000
0M
#550000
b100 [
1M
#555000
0M
#560000
b100 [
1M
#565000
0M
#570000
b100 [
1M
#575000
0M
#580000
b100 [
1M
#585000
0M
#590000
b100 [
1M
#595000
0M
#600000
b100 [
1M
#605000
0M
#610000
b100 [
1M
#615000
0M
#620000
b100 [
1M
#625000
0M
#630000
b100 [
1M
#635000
0M
#640000
b100 [
1M
#645000
0M
#650000
b100 [
1M
#655000
0M
#660000
b100 [
1M
#665000
0M
#670000
b100 [
1M
#675000
0M
#680000
b100 [
1M
#685000
0M
#690000
b100 [
1M
#695000
0M
#700000
b100 [
1M
#705000
0M
#710000
b100 [
1M
#715000
0M
#720000
b100 [
1M
#725000
0M
#730000
b100 [
1M
#735000
0M
#740000
b100 [
1M
#745000
0M
#750000
b100 [
1M
#755000
0M
#760000
b100 [
1M
#765000
0M
#770000
b100 [
1M
#775000
0M
#780000
b100 [
1M
#785000
0M
#790000
b100 [
1M
#795000
0M
#800000
b100 [
1M
#805000
0M
#810000
b100 [
1M
#815000
0M
#820000
b100 [
1M
#825000
0M
#830000
b100 [
1M
#835000
0M
#840000
b100 [
1M
#845000
0M
#850000
b100 [
1M
#855000
0M
#860000
b100 [
1M
#865000
0M
#870000
b100 [
1M
#875000
0M
#880000
b100 [
1M
#885000
0M
#890000
b100 [
1M
#895000
0M
#900000
b100 [
1M
#905000
0M
#910000
b100 [
1M
#915000
0M
#920000
b100 [
1M
#925000
0M
#930000
b100 [
1M
#935000
0M
#940000
b100 [
1M
#945000
0M
#950000
b100 [
1M
#955000
0M
#960000
b100 [
1M
#965000
0M
#970000
b100 [
1M
#975000
0M
#980000
b100 [
1M
#985000
0M
#990000
b100 [
1M
#995000
0M
#1000000
b100 [
1M
#1005000
0M
#1010000
b100 [
1M
#1015000
0M
#1020000
b100 [
1M
#1025000
0M
#1030000
b100 [
1M
#1035000
0M
#1040000
b100 [
1M
#1045000
0M
#1050000
b100 [
1M
#1055000
0M
#1060000
b100 [
1M
#1065000
0M
#1070000
b100 [
1M
#1075000
0M
#1080000
b100 [
1M
#1085000
0M
#1090000
b100 [
1M
#1095000
0M
#1100000
b100 [
1M
#1105000
0M
#1110000
b100 [
1M
#1115000
0M
#1120000
b100 [
1M
#1125000
0M
#1130000
b100 [
1M
#1135000
0M
#1140000
b100 [
1M
#1145000
0M
#1150000
b100 [
1M
#1155000
0M
#1160000
b100 [
1M
#1165000
0M
#1170000
b100 [
1M
#1175000
0M
#1180000
b100 [
1M
#1185000
0M
#1190000
b100 [
1M
#1195000
0M
#1200000
b100 [
1M
#1205000
0M
#1210000
b100 [
1M
#1215000
0M
#1220000
b100 [
1M
#1225000
0M
#1230000
b100 [
1M
#1235000
0M
#1240000
b100 [
1M
#1245000
0M
#1250000
b100 [
1M
#1255000
0M
#1260000
b100 [
1M
#1265000
0M
#1270000
b100 [
1M
#1275000
0M
#1280000
b100 [
1M
#1285000
0M
#1290000
b100 [
1M
#1295000
0M
#1300000
b100 [
1M
#1305000
0M
#1310000
b100 [
1M
#1315000
0M
#1320000
b100 [
1M
#1325000
0M
#1330000
b100 [
1M
#1335000
0M
#1340000
b100 [
1M
#1345000
0M
#1350000
b100 [
1M
#1355000
0M
#1360000
b100 [
1M
#1365000
0M
#1370000
b100 [
1M
#1375000
0M
#1380000
b100 [
1M
#1385000
0M
#1390000
b100 [
1M
#1395000
0M
#1400000
b100 [
1M
#1405000
0M
#1410000
b100 [
1M
#1415000
0M
#1420000
b100 [
1M
#1425000
0M
#1430000
b100 [
1M
#1435000
0M
#1440000
b100 [
1M
#1445000
0M
#1450000
b100 [
1M
#1455000
0M
#1460000
b100 [
1M
#1465000
0M
#1470000
b100 [
1M
#1475000
0M
#1480000
b100 [
1M
#1485000
0M
#1490000
b100 [
1M
#1495000
0M
#1500000
b100 [
1M
#1505000
0M
#1510000
b100 [
1M
#1515000
0M
#1520000
b100 [
1M
#1525000
0M
#1530000
b100 [
1M
#1535000
0M
#1540000
b100 [
1M
#1545000
0M
#1550000
b100 [
1M
#1555000
0M
#1560000
b100 [
1M
#1565000
0M
#1570000
b100 [
1M
#1575000
0M
#1580000
b100 [
1M
#1585000
0M
#1590000
b100 [
1M
#1595000
0M
#1600000
b100 [
1M
#1605000
0M
#1610000
b100 [
1M
#1615000
0M
#1620000
b100 [
1M
#1625000
0M
#1630000
b100 [
1M
#1635000
0M
#1640000
b100 [
1M
#1645000
0M
#1650000
b100 [
1M
#1655000
0M
#1660000
b100 [
1M
#1665000
0M
#1670000
b100 [
1M
#1675000
0M
#1680000
b100 [
1M
#1685000
0M
#1690000
b100 [
1M
#1695000
0M
#1700000
b100 [
1M
#1705000
0M
#1710000
b100 [
1M
#1715000
0M
#1720000
b100 [
1M
#1725000
0M
#1730000
b100 [
1M
#1735000
0M
#1740000
b100 [
1M
#1745000
0M
#1750000
b100 [
1M
#1755000
0M
#1760000
b100 [
1M
#1765000
0M
#1770000
b100 [
1M
#1775000
0M
#1780000
b100 [
1M
#1785000
0M
#1790000
b100 [
1M
#1795000
0M
#1800000
b100 [
1M
#1805000
0M
#1810000
b100 [
1M
#1815000
0M
#1820000
b100 [
1M
#1825000
0M
#1830000
b100 [
1M
#1835000
0M
#1840000
b100 [
1M
#1845000
0M
#1850000
b100 [
1M
#1855000
0M
#1860000
b100 [
1M
#1865000
0M
#1870000
b100 [
1M
#1875000
0M
#1880000
b100 [
1M
#1885000
0M
#1890000
b100 [
1M
#1895000
0M
#1900000
b100 [
1M
#1905000
0M
#1910000
b100 [
1M
#1915000
0M
#1920000
b100 [
1M
#1925000
0M
#1930000
b100 [
1M
#1935000
0M
#1940000
b100 [
1M
#1945000
0M
#1950000
b100 [
1M
#1955000
0M
#1960000
b100 [
1M
#1965000
0M
#1970000
b100 [
1M
#1975000
0M
#1980000
b100 [
1M
#1985000
0M
#1990000
b100 [
1M
#1995000
0M
#2000000
b100 [
1M
#2005000
0M
#2010000
b100 [
1M
#2015000
0M
#2020000
b100 [
1M
#2025000
0M
#2030000
b100 [
1M
#2035000
0M
#2040000
b100 [
1M
#2045000
0M
#2050000
b100 [
1M
#2055000
0M
#2060000
b100 [
1M
#2065000
0M
#2070000
b100 [
1M
#2075000
0M
#2080000
b100 [
1M
#2085000
0M
#2090000
b100 [
1M
#2095000
0M
#2100000
b100 [
1M
#2105000
0M
#2110000
b100 [
1M
#2115000
0M
#2120000
b100 [
1M
#2125000
0M
#2130000
b100 [
1M
#2135000
0M
#2140000
b100 [
1M
#2145000
0M
#2150000
b100 [
1M
#2155000
0M
#2160000
b100 [
1M
#2165000
0M
#2170000
b100 [
1M
#2175000
0M
#2180000
b100 [
1M
#2185000
0M
#2190000
b100 [
1M
#2195000
0M
#2200000
b100 [
1M
#2205000
0M
#2210000
b100 [
1M
#2215000
0M
#2220000
b100 [
1M
#2225000
0M
#2230000
b100 [
1M
#2235000
0M
#2240000
b100 [
1M
#2245000
0M
#2250000
b100 [
1M
#2255000
0M
#2260000
b100 [
1M
#2265000
0M
#2270000
b100 [
1M
#2275000
0M
#2280000
b100 [
1M
#2285000
0M
#2290000
b100 [
1M
#2295000
0M
#2300000
b100 [
1M
#2305000
0M
#2310000
b100 [
1M
#2315000
0M
#2320000
b100 [
1M
#2325000
0M
#2330000
b100 [
1M
#2335000
0M
#2340000
b100 [
1M
#2345000
0M
#2350000
b100 [
1M
#2355000
0M
#2360000
b100 [
1M
#2365000
0M
#2370000
b100 [
1M
#2375000
0M
#2380000
b100 [
1M
#2385000
0M
#2390000
b100 [
1M
#2395000
0M
#2400000
b100 [
1M
#2405000
0M
#2410000
b100 [
1M
#2415000
0M
#2420000
b100 [
1M
#2425000
0M
#2430000
b100 [
1M
#2435000
0M
#2440000
b100 [
1M
#2445000
0M
#2450000
b100 [
1M
#2455000
0M
#2460000
b100 [
1M
#2465000
0M
#2470000
b100 [
1M
#2475000
0M
#2480000
b100 [
1M
#2485000
0M
#2490000
b100 [
1M
#2495000
0M
#2500000
b100 [
1M
#2505000
0M
#2510000
b100 [
1M
#2515000
0M
#2520000
b100 [
1M
#2525000
0M
#2530000
b100 [
1M
#2535000
0M
#2540000
b100 [
1M
#2545000
0M
#2550000
b100 [
1M
#2555000
0M
#2560000
b100 [
1M
#2565000
0M
#2570000
b100 [
1M
#2575000
0M
#2580000
b100 [
1M
#2585000
0M
#2590000
b100 [
1M
#2595000
0M
#2600000
b100 [
1M
#2605000
0M
#2610000
b100 [
1M
#2615000
0M
#2620000
b100 [
1M
#2625000
0M
#2630000
b100 [
1M
#2635000
0M
#2640000
b100 [
1M
#2645000
0M
#2650000
b100 [
1M
#2655000
0M
#2660000
b100 [
1M
#2665000
0M
#2670000
b100 [
1M
#2675000
0M
#2680000
b100 [
1M
#2685000
0M
#2690000
b100 [
1M
#2695000
0M
#2700000
b100 [
1M
#2705000
0M
#2710000
b100 [
1M
#2715000
0M
#2720000
b100 [
1M
#2725000
0M
#2730000
b100 [
1M
#2735000
0M
#2740000
b100 [
1M
#2745000
0M
#2750000
b100 [
1M
#2755000
0M
#2760000
b100 [
1M
#2765000
0M
#2770000
b100 [
1M
#2775000
0M
#2780000
b100 [
1M
#2785000
0M
#2790000
b100 [
1M
#2795000
0M
#2800000
b100 [
1M
#2805000
0M
#2810000
b100 [
1M
#2815000
0M
#2820000
b100 [
1M
#2825000
0M
#2830000
b100 [
1M
#2835000
0M
#2840000
b100 [
1M
#2845000
0M
#2850000
b100 [
1M
#2855000
0M
#2860000
b100 [
1M
#2865000
0M
#2870000
b100 [
1M
#2875000
0M
#2880000
b100 [
1M
#2885000
0M
#2890000
b100 [
1M
#2895000
0M
#2900000
b100 [
1M
#2905000
0M
#2910000
b100 [
1M
#2915000
0M
#2920000
b100 [
1M
#2925000
0M
#2930000
b100 [
1M
#2935000
0M
#2940000
b100 [
1M
#2945000
0M
#2950000
b100 [
1M
#2955000
0M
#2960000
b100 [
1M
#2965000
0M
#2970000
b100 [
1M
#2975000
0M
#2980000
b100 [
1M
#2985000
0M
#2990000
b100 [
1M
#2995000
0M
#3000000
b100 [
1M
#3005000
0M
#3010000
b100 [
1M
#3015000
0M
#3020000
b100 [
1M
#3025000
0M
#3030000
b100 [
1M
#3035000
0M
#3040000
b100 [
1M
#3045000
0M
#3050000
b100 [
1M
#3055000
0M
#3060000
b100 [
1M
#3065000
0M
#3070000
b100 [
1M
#3075000
0M
#3080000
b100 [
1M
#3085000
0M
#3090000
b100 [
1M
#3095000
0M
#3100000
b100 [
1M
#3105000
0M
#3110000
b100 [
1M
#3115000
0M
#3120000
b100 [
1M
#3125000
0M
#3130000
b100 [
1M
#3135000
0M
#3140000
b100 [
1M
#3145000
0M
#3150000
b100 [
1M
#3155000
0M
#3160000
b100 [
1M
#3165000
0M
#3170000
b100 [
1M
#3175000
0M
#3180000
b100 [
1M
#3185000
0M
#3190000
b100 [
1M
#3195000
0M
#3200000
b100 [
1M
#3205000
0M
#3210000
b100 [
1M
#3215000
0M
#3220000
b100 [
1M
#3225000
0M
#3230000
b100 [
1M
#3235000
0M
#3240000
b100 [
1M
#3245000
0M
#3250000
b100 [
1M
#3255000
0M
#3260000
b100 [
1M
#3265000
0M
#3270000
b100 [
1M
#3275000
0M
#3280000
b100 [
1M
#3285000
0M
#3290000
b100 [
1M
#3295000
0M
#3300000
b100 [
1M
#3305000
0M
#3310000
b100 [
1M
#3315000
0M
#3320000
b100 [
1M
#3325000
0M
#3330000
b100 [
1M
#3335000
0M
#3340000
b100 [
1M
#3345000
0M
#3350000
b100 [
1M
#3355000
0M
#3360000
b100 [
1M
#3365000
0M
#3370000
b100 [
1M
#3375000
0M
#3380000
b100 [
1M
#3385000
0M
#3390000
b100 [
1M
#3395000
0M
#3400000
b100 [
1M
#3405000
0M
#3410000
b100 [
1M
#3415000
0M
#3420000
b100 [
1M
#3425000
0M
#3430000
b100 [
1M
#3435000
0M
#3440000
b100 [
1M
#3445000
0M
#3450000
b100 [
1M
#3455000
0M
#3460000
b100 [
1M
#3465000
0M
#3470000
b100 [
1M
#3475000
0M
#3480000
b100 [
1M
#3485000
0M
#3490000
b100 [
1M
#3495000
0M
#3500000
b100 [
1M
#3505000
0M
#3510000
b100 [
1M
#3515000
0M
#3520000
b100 [
1M
#3525000
0M
#3530000
b100 [
1M
#3535000
0M
#3540000
b100 [
1M
#3545000
0M
#3550000
b100 [
1M
#3555000
0M
#3560000
b100 [
1M
#3565000
0M
#3570000
b100 [
1M
#3575000
0M
#3580000
b100 [
1M
#3585000
0M
#3590000
b100 [
1M
#3595000
0M
#3600000
b100 [
1M
#3605000
0M
#3610000
b100 [
1M
#3615000
0M
#3620000
b100 [
1M
#3625000
0M
#3630000
b100 [
1M
#3635000
0M
#3640000
b100 [
1M
#3645000
0M
#3650000
b100 [
1M
#3655000
0M
#3660000
b100 [
1M
#3665000
0M
#3670000
b100 [
1M
#3675000
0M
#3680000
b100 [
1M
#3685000
0M
#3690000
b100 [
1M
#3695000
0M
#3700000
b100 [
1M
#3705000
0M
#3710000
b100 [
1M
#3715000
0M
#3720000
b100 [
1M
#3725000
0M
#3730000
b100 [
1M
#3735000
0M
#3740000
b100 [
1M
#3745000
0M
#3750000
b100 [
1M
#3755000
0M
#3760000
b100 [
1M
#3765000
0M
#3770000
b100 [
1M
#3775000
0M
#3780000
b100 [
1M
#3785000
0M
#3790000
b100 [
1M
#3795000
0M
#3800000
b100 [
1M
#3805000
0M
#3810000
b100 [
1M
#3815000
0M
#3820000
b100 [
1M
#3825000
0M
#3830000
b100 [
1M
#3835000
0M
#3840000
b100 [
1M
#3845000
0M
#3850000
b100 [
1M
#3855000
0M
#3860000
b100 [
1M
#3865000
0M
#3870000
b100 [
1M
#3875000
0M
#3880000
b100 [
1M
#3885000
0M
#3890000
b100 [
1M
#3895000
0M
#3900000
b100 [
1M
#3905000
0M
#3910000
b100 [
1M
#3915000
0M
#3920000
b100 [
1M
#3925000
0M
#3930000
b100 [
1M
#3935000
0M
#3940000
b100 [
1M
#3945000
0M
#3950000
b100 [
1M
#3955000
0M
#3960000
b100 [
1M
#3965000
0M
#3970000
b100 [
1M
#3975000
0M
#3980000
b100 [
1M
#3985000
0M
#3990000
b100 [
1M
#3995000
0M
#4000000
b100 [
1M
#4005000
0M
#4010000
b100 [
1M
#4015000
0M
#4020000
b100 [
1M
#4025000
0M
#4030000
b100 [
1M
#4035000
0M
#4040000
b100 [
1M
#4045000
0M
#4050000
b100 [
1M
#4055000
0M
#4060000
b100 [
1M
#4065000
0M
#4070000
b100 [
1M
#4075000
0M
#4080000
b100 [
1M
#4085000
0M
#4090000
b100 [
1M
#4095000
0M
#4100000
b100 [
1M
#4105000
0M
#4110000
b100 [
1M
#4115000
0M
#4120000
b100 [
1M
#4125000
0M
#4130000
b100 [
1M
#4135000
0M
#4140000
b100 [
1M
#4145000
0M
#4150000
b100 [
1M
#4155000
0M
#4160000
b100 [
1M
#4165000
0M
#4170000
b100 [
1M
#4175000
0M
#4180000
b100 [
1M
#4185000
0M
#4190000
b100 [
1M
#4195000
0M
#4200000
b100 [
1M
#4205000
0M
#4210000
b100 [
1M
#4215000
0M
#4220000
b100 [
1M
#4225000
0M
#4230000
b100 [
1M
#4235000
0M
#4240000
b100 [
1M
#4245000
0M
#4250000
b100 [
1M
#4255000
0M
#4260000
b100 [
1M
#4265000
0M
#4270000
b100 [
1M
#4275000
0M
#4280000
b100 [
1M
#4285000
0M
#4290000
b100 [
1M
#4295000
0M
#4300000
b100 [
1M
#4305000
0M
#4310000
b100 [
1M
#4315000
0M
#4320000
b100 [
1M
#4325000
0M
#4330000
b100 [
1M
#4335000
0M
#4340000
b100 [
1M
#4345000
0M
#4350000
b100 [
1M
#4355000
0M
#4360000
b100 [
1M
#4365000
0M
#4370000
b100 [
1M
#4375000
0M
#4380000
b100 [
1M
#4385000
0M
#4390000
b100 [
1M
#4395000
0M
#4400000
b100 [
1M
#4405000
0M
#4410000
b100 [
1M
#4415000
0M
#4420000
b100 [
1M
#4425000
0M
#4430000
b100 [
1M
#4435000
0M
#4440000
b100 [
1M
#4445000
0M
#4450000
b100 [
1M
#4455000
0M
#4460000
b100 [
1M
#4465000
0M
#4470000
b100 [
1M
#4475000
0M
#4480000
b100 [
1M
#4485000
0M
#4490000
b100 [
1M
#4495000
0M
#4500000
b100 [
1M
#4505000
0M
#4510000
b100 [
1M
#4515000
0M
#4520000
b100 [
1M
#4525000
0M
#4530000
b100 [
1M
#4535000
0M
#4540000
b100 [
1M
#4545000
0M
#4550000
b100 [
1M
#4555000
0M
#4560000
b100 [
1M
#4565000
0M
#4570000
b100 [
1M
#4575000
0M
#4580000
b100 [
1M
#4585000
0M
#4590000
b100 [
1M
#4595000
0M
#4600000
b100 [
1M
#4605000
0M
#4610000
b100 [
1M
#4615000
0M
#4620000
b100 [
1M
#4625000
0M
#4630000
b100 [
1M
#4635000
0M
#4640000
b100 [
1M
#4645000
0M
#4650000
b100 [
1M
#4655000
0M
#4660000
b100 [
1M
#4665000
0M
#4670000
b100 [
1M
#4675000
0M
#4680000
b100 [
1M
#4685000
0M
#4690000
b100 [
1M
#4695000
0M
#4700000
b100 [
1M
#4705000
0M
#4710000
b100 [
1M
#4715000
0M
#4720000
b100 [
1M
#4725000
0M
#4730000
b100 [
1M
#4735000
0M
#4740000
b100 [
1M
#4745000
0M
#4750000
b100 [
1M
#4755000
0M
#4760000
b100 [
1M
#4765000
0M
#4770000
b100 [
1M
#4775000
0M
#4780000
b100 [
1M
#4785000
0M
#4790000
b100 [
1M
#4795000
0M
#4800000
b100 [
1M
#4805000
0M
#4810000
b100 [
1M
#4815000
0M
#4820000
b100 [
1M
#4825000
0M
#4830000
b100 [
1M
#4835000
0M
#4840000
b100 [
1M
#4845000
0M
#4850000
b100 [
1M
#4855000
0M
#4860000
b100 [
1M
#4865000
0M
#4870000
b100 [
1M
#4875000
0M
#4880000
b100 [
1M
#4885000
0M
#4890000
b100 [
1M
#4895000
0M
#4900000
b100 [
1M
#4905000
0M
#4910000
b100 [
1M
#4915000
0M
#4920000
b100 [
1M
#4925000
0M
#4930000
b100 [
1M
#4935000
0M
#4940000
b100 [
1M
#4945000
0M
#4950000
b100 [
1M
#4955000
0M
#4960000
b100 [
1M
#4965000
0M
#4970000
b100 [
1M
#4975000
0M
#4980000
b100 [
1M
#4985000
0M
#4990000
b100 [
1M
#4995000
0M
#5000000
b100 [
1M
#5005000
0M
#5010000
b100 [
1M
#5015000
0M
#5020000
b100 [
1M
#5025000
0M
#5030000
b100 [
1M
#5035000
0M
#5040000
b100 [
1M
#5045000
0M
#5050000
b100 [
1M
#5055000
0M
#5060000
b100 [
1M
#5065000
0M
#5070000
b100 [
1M
#5075000
0M
#5080000
b100 [
1M
#5085000
0M
#5090000
b100 [
1M
#5095000
0M
#5100000
b100 [
1M
#5105000
0M
#5110000
b100 [
1M
#5115000
0M
#5120000
b100 [
1M
#5125000
0M
#5130000
b100 [
1M
#5135000
0M
#5140000
b100 [
1M
#5145000
0M
#5150000
b100 [
1M
#5155000
0M
#5160000
b100 [
1M
#5165000
0M
#5170000
b100 [
1M
#5175000
0M
#5180000
b100 [
1M
#5185000
0M
#5190000
b100 [
1M
#5195000
0M
#5200000
b100 [
1M
#5205000
0M
#5210000
b100 [
1M
#5215000
0M
#5220000
b100 [
1M
#5225000
0M
#5230000
b100 [
1M
#5235000
0M
#5240000
b100 [
1M
#5245000
0M
#5250000
b100 [
1M
#5255000
0M
#5260000
b100 [
1M
#5265000
0M
#5270000
b100 [
1M
#5275000
0M
#5280000
b100 [
1M
#5285000
0M
#5290000
b100 [
1M
#5295000
0M
#5300000
b100 [
1M
#5305000
0M
#5310000
b100 [
1M
#5315000
0M
#5320000
b100 [
1M
#5325000
0M
#5330000
b100 [
1M
#5335000
0M
#5340000
b100 [
1M
#5345000
0M
#5350000
b100 [
1M
#5355000
0M
#5360000
b100 [
1M
#5365000
0M
#5370000
b100 [
1M
#5375000
0M
#5380000
b100 [
1M
#5385000
0M
#5390000
b100 [
1M
#5395000
0M
#5400000
b100 [
1M
#5405000
0M
#5410000
b100 [
1M
#5415000
0M
#5420000
b100 [
1M
#5425000
0M
#5430000
b100 [
1M
#5435000
0M
#5440000
b100 [
1M
#5445000
0M
#5450000
b100 [
1M
#5455000
0M
#5460000
b100 [
1M
#5465000
0M
#5470000
b100 [
1M
#5475000
0M
#5480000
b100 [
1M
#5485000
0M
#5490000
b100 [
1M
#5495000
0M
#5500000
b100 [
1M
#5505000
0M
#5510000
b100 [
1M
#5515000
0M
#5520000
b100 [
1M
#5525000
0M
#5530000
b100 [
1M
#5535000
0M
#5540000
b100 [
1M
#5545000
0M
#5550000
b100 [
1M
#5555000
0M
#5560000
b100 [
1M
#5565000
0M
#5570000
b100 [
1M
#5575000
0M
#5580000
b100 [
1M
#5585000
0M
#5590000
b100 [
1M
#5595000
0M
#5600000
b100 [
1M
#5605000
0M
#5610000
b100 [
1M
#5615000
0M
#5620000
b100 [
1M
#5625000
0M
#5630000
b100 [
1M
#5635000
0M
#5640000
b100 [
1M
#5645000
0M
#5650000
b100 [
1M
#5655000
0M
#5660000
b100 [
1M
#5665000
0M
#5670000
b100 [
1M
#5675000
0M
#5680000
b100 [
1M
#5685000
0M
#5690000
b100 [
1M
#5695000
0M
#5700000
b100 [
1M
#5705000
0M
#5710000
b100 [
1M
#5715000
0M
#5720000
b100 [
1M
#5725000
0M
#5730000
b100 [
1M
#5735000
0M
#5740000
b100 [
1M
#5745000
0M
#5750000
b100 [
1M
#5755000
0M
#5760000
b100 [
1M
#5765000
0M
#5770000
b100 [
1M
#5775000
0M
#5780000
b100 [
1M
#5785000
0M
#5790000
b100 [
1M
#5795000
0M
#5800000
b100 [
1M
#5805000
0M
#5810000
b100 [
1M
#5815000
0M
#5820000
b100 [
1M
#5825000
0M
#5830000
b100 [
1M
#5835000
0M
#5840000
b100 [
1M
#5845000
0M
#5850000
b100 [
1M
#5855000
0M
#5860000
b100 [
1M
#5865000
0M
#5870000
b100 [
1M
#5875000
0M
#5880000
b100 [
1M
#5885000
0M
#5890000
b100 [
1M
#5895000
0M
#5900000
b100 [
1M
#5905000
0M
#5910000
b100 [
1M
#5915000
0M
#5920000
b100 [
1M
#5925000
0M
#5930000
b100 [
1M
#5935000
0M
#5940000
b100 [
1M
#5945000
0M
#5950000
b100 [
1M
#5955000
0M
#5960000
b100 [
1M
#5965000
0M
#5970000
b100 [
1M
#5975000
0M
#5980000
b100 [
1M
#5985000
0M
#5990000
b100 [
1M
#5995000
0M
#6000000
b100 [
1M
#6005000
0M
#6010000
b100 [
1M
#6015000
0M
#6020000
b100 [
1M
#6025000
0M
#6030000
b100 [
1M
#6035000
0M
#6040000
b100 [
1M
#6045000
0M
#6050000
b100 [
1M
#6055000
0M
#6060000
b100 [
1M
#6065000
0M
#6070000
b100 [
1M
#6075000
0M
#6080000
b100 [
1M
#6085000
0M
#6090000
b100 [
1M
#6095000
0M
#6100000
b100 [
1M
#6105000
0M
#6110000
b100 [
1M
#6115000
0M
#6120000
b100 [
1M
#6125000
0M
#6130000
b100 [
1M
#6135000
0M
#6140000
b100 [
1M
#6145000
0M
#6150000
b100 [
1M
#6155000
0M
#6160000
b100 [
1M
#6165000
0M
#6170000
b100 [
1M
